br/com/models/Companies.class
test/Cep.class
br/com/controllers/exceptions/PreexistingEntityException.class
layouts/Entity.class
br/com/utils/SessionUtils.class
br/com/controllers/exceptions/RollbackFailureException.class
br/com/filter/UrlFilter.class
test/Teste.class
br/com/filter/AuthorizationFilter.class
br/com/controllers/exceptions/IllegalOrphanException.class
br/com/controllers/CompaniesController.class
br/com/dao/LoginDAO.class
br/com/controllers/LoginController.class
br/com/dao/connection/ConnectionFactory.class
br/com/utils/LoginUtil.class
br/com/models/User.class
br/com/controllers/exceptions/NonexistentEntityException.class
br/com/dao/DaoGeneric.class
br/com/phaselistener/LoginPhaserListener.class
